%YAML 1.1
%TAG !u! tag:unity3d.com,2011:
--- !u!1 &1867063887845907477
GameObject:
  m_ObjectHideFlags: 0
  m_CorrespondingSourceObject: {fileID: 0}
  m_PrefabInstance: {fileID: 0}
  m_PrefabAsset: {fileID: 0}
  serializedVersion: 6
  m_Component:
  - component: {fileID: 6933332539137652419}
  m_Layer: 0
  m_Name: acts-of-service-player-0
  m_TagString: Untagged
  m_Icon: {fileID: 0}
  m_NavMeshLayer: 0
  m_StaticEditorFlags: 0
  m_IsActive: 1
--- !u!4 &6933332539137652419
Transform:
  m_ObjectHideFlags: 0
  m_CorrespondingSourceObject: {fileID: 0}
  m_PrefabInstance: {fileID: 0}
  m_PrefabAsset: {fileID: 0}
  m_GameObject: {fileID: 1867063887845907477}
  m_LocalRotation: {x: 0, y: 0, z: 0, w: 1}
  m_LocalPosition: {x: 0, y: 0, z: 0}
  m_LocalScale: {x: 1, y: 1, z: 1}
  m_Children:
  - {fileID: 971066158588547149}
  - {fileID: 6286091470712311195}
  m_Father: {fileID: 0}
  m_RootOrder: 0
  m_LocalEulerAnglesHint: {x: 0, y: 0, z: 0}
--- !u!1001 &3026655331489245382
PrefabInstance:
  m_ObjectHideFlags: 0
  serializedVersion: 2
  m_Modification:
    m_TransformParent: {fileID: 6933332539137652419}
    m_Modifications:
    - target: {fileID: 2844372235180292235, guid: 549178b86e58e4655bdb8154275dfc32,
        type: 3}
      propertyPath: m_RootOrder
      value: 0
      objectReference: {fileID: 0}
    - target: {fileID: 2844372235180292235, guid: 549178b86e58e4655bdb8154275dfc32,
        type: 3}
      propertyPath: m_LocalPosition.x
      value: 0
      objectReference: {fileID: 0}
    - target: {fileID: 2844372235180292235, guid: 549178b86e58e4655bdb8154275dfc32,
        type: 3}
      propertyPath: m_LocalPosition.y
      value: 0
      objectReference: {fileID: 0}
    - target: {fileID: 2844372235180292235, guid: 549178b86e58e4655bdb8154275dfc32,
        type: 3}
      propertyPath: m_LocalPosition.z
      value: 0
      objectReference: {fileID: 0}
    - target: {fileID: 2844372235180292235, guid: 549178b86e58e4655bdb8154275dfc32,
        type: 3}
      propertyPath: m_LocalRotation.w
      value: 0
      objectReference: {fileID: 0}
    - target: {fileID: 2844372235180292235, guid: 549178b86e58e4655bdb8154275dfc32,
        type: 3}
      propertyPath: m_LocalRotation.x
      value: 0
      objectReference: {fileID: 0}
    - target: {fileID: 2844372235180292235, guid: 549178b86e58e4655bdb8154275dfc32,
        type: 3}
      propertyPath: m_LocalRotation.y
      value: 1
      objectReference: {fileID: 0}
    - target: {fileID: 2844372235180292235, guid: 549178b86e58e4655bdb8154275dfc32,
        type: 3}
      propertyPath: m_LocalRotation.z
      value: 0
      objectReference: {fileID: 0}
    - target: {fileID: 2844372235180292235, guid: 549178b86e58e4655bdb8154275dfc32,
        type: 3}
      propertyPath: m_LocalEulerAnglesHint.x
      value: 0
      objectReference: {fileID: 0}
    - target: {fileID: 2844372235180292235, guid: 549178b86e58e4655bdb8154275dfc32,
        type: 3}
      propertyPath: m_LocalEulerAnglesHint.y
      value: 180
      objectReference: {fileID: 0}
    - target: {fileID: 2844372235180292235, guid: 549178b86e58e4655bdb8154275dfc32,
        type: 3}
      propertyPath: m_LocalEulerAnglesHint.z
      value: 0
      objectReference: {fileID: 0}
    - target: {fileID: 3958724400399915310, guid: 549178b86e58e4655bdb8154275dfc32,
        type: 3}
      propertyPath: m_Name
      value: 03_L_Service_Loc
      objectReference: {fileID: 0}
    m_RemovedComponents: []
  m_SourcePrefab: {fileID: 100100000, guid: 549178b86e58e4655bdb8154275dfc32, type: 3}
--- !u!4 &971066158588547149 stripped
Transform:
  m_CorrespondingSourceObject: {fileID: 2844372235180292235, guid: 549178b86e58e4655bdb8154275dfc32,
    type: 3}
  m_PrefabInstance: {fileID: 3026655331489245382}
  m_PrefabAsset: {fileID: 0}
--- !u!1001 &5281925056810890194
PrefabInstance:
  m_ObjectHideFlags: 0
  serializedVersion: 2
  m_Modification:
    m_TransformParent: {fileID: 6933332539137652419}
    m_Modifications:
    - target: {fileID: 2193679876070391369, guid: 1fdf6dbd96541490f9e284cf458d850d,
        type: 3}
      propertyPath: m_RootOrder
      value: 1
      objectReference: {fileID: 0}
    - target: {fileID: 2193679876070391369, guid: 1fdf6dbd96541490f9e284cf458d850d,
        type: 3}
      propertyPath: m_LocalPosition.x
      value: 0
      objectReference: {fileID: 0}
    - target: {fileID: 2193679876070391369, guid: 1fdf6dbd96541490f9e284cf458d850d,
        type: 3}
      propertyPath: m_LocalPosition.y
      value: 0
      objectReference: {fileID: 0}
    - target: {fileID: 2193679876070391369, guid: 1fdf6dbd96541490f9e284cf458d850d,
        type: 3}
      propertyPath: m_LocalPosition.z
      value: 0
      objectReference: {fileID: 0}
    - target: {fileID: 2193679876070391369, guid: 1fdf6dbd96541490f9e284cf458d850d,
        type: 3}
      propertyPath: m_LocalRotation.w
      value: 1
      objectReference: {fileID: 0}
    - target: {fileID: 2193679876070391369, guid: 1fdf6dbd96541490f9e284cf458d850d,
        type: 3}
      propertyPath: m_LocalRotation.x
      value: -0
      objectReference: {fileID: 0}
    - target: {fileID: 2193679876070391369, guid: 1fdf6dbd96541490f9e284cf458d850d,
        type: 3}
      propertyPath: m_LocalRotation.y
      value: -0
      objectReference: {fileID: 0}
    - target: {fileID: 2193679876070391369, guid: 1fdf6dbd96541490f9e284cf458d850d,
        type: 3}
      propertyPath: m_LocalRotation.z
      value: -0
      objectReference: {fileID: 0}
    - target: {fileID: 2193679876070391369, guid: 1fdf6dbd96541490f9e284cf458d850d,
        type: 3}
      propertyPath: m_LocalEulerAnglesHint.x
      value: 0
      objectReference: {fileID: 0}
    - target: {fileID: 2193679876070391369, guid: 1fdf6dbd96541490f9e284cf458d850d,
        type: 3}
      propertyPath: m_LocalEulerAnglesHint.y
      value: 0
      objectReference: {fileID: 0}
    - target: {fileID: 2193679876070391369, guid: 1fdf6dbd96541490f9e284cf458d850d,
        type: 3}
      propertyPath: m_LocalEulerAnglesHint.z
      value: 0
      objectReference: {fileID: 0}
    - target: {fileID: 2288610194076382788, guid: 1fdf6dbd96541490f9e284cf458d850d,
        type: 3}
      propertyPath: m_Name
      value: 01_playerCube_Loc
      objectReference: {fileID: 0}
    m_RemovedComponents: []
  m_SourcePrefab: {fileID: 100100000, guid: 1fdf6dbd96541490f9e284cf458d850d, type: 3}
--- !u!4 &6286091470712311195 stripped
Transform:
  m_CorrespondingSourceObject: {fileID: 2193679876070391369, guid: 1fdf6dbd96541490f9e284cf458d850d,
    type: 3}
  m_PrefabInstance: {fileID: 5281925056810890194}
  m_PrefabAsset: {fileID: 0}
