%YAML 1.1
%TAG !u! tag:unity3d.com,2011:
--- !u!1 &1032462819605924388
GameObject:
  m_ObjectHideFlags: 0
  m_CorrespondingSourceObject: {fileID: 0}
  m_PrefabInstance: {fileID: 0}
  m_PrefabAsset: {fileID: 0}
  serializedVersion: 6
  m_Component:
  - component: {fileID: 3411055748374159577}
  m_Layer: 0
  m_Name: gift-giving-player-2
  m_TagString: Untagged
  m_Icon: {fileID: 0}
  m_NavMeshLayer: 0
  m_StaticEditorFlags: 0
  m_IsActive: 1
--- !u!4 &3411055748374159577
Transform:
  m_ObjectHideFlags: 0
  m_CorrespondingSourceObject: {fileID: 0}
  m_PrefabInstance: {fileID: 0}
  m_PrefabAsset: {fileID: 0}
  m_GameObject: {fileID: 1032462819605924388}
  m_LocalRotation: {x: 0, y: 0, z: 0, w: 1}
  m_LocalPosition: {x: 0, y: 0, z: 0}
  m_LocalScale: {x: 1, y: 1, z: 1}
  m_Children:
  - {fileID: 4303145766608605147}
  - {fileID: 7494098526173862109}
  m_Father: {fileID: 0}
  m_RootOrder: 0
  m_LocalEulerAnglesHint: {x: 0, y: 0, z: 0}
--- !u!1001 &8201608755172201516
PrefabInstance:
  m_ObjectHideFlags: 0
  serializedVersion: 2
  m_Modification:
    m_TransformParent: {fileID: 3411055748374159577}
    m_Modifications:
    - target: {fileID: 3429530595614205599, guid: 8952f28ccd452489989fbdf53a664869,
        type: 3}
      propertyPath: m_Name
      value: 03_L_GiftBox_Loc 1
      objectReference: {fileID: 0}
    - target: {fileID: 5361025131007925239, guid: 8952f28ccd452489989fbdf53a664869,
        type: 3}
      propertyPath: m_RootOrder
      value: 0
      objectReference: {fileID: 0}
    - target: {fileID: 5361025131007925239, guid: 8952f28ccd452489989fbdf53a664869,
        type: 3}
      propertyPath: m_LocalPosition.x
      value: 0
      objectReference: {fileID: 0}
    - target: {fileID: 5361025131007925239, guid: 8952f28ccd452489989fbdf53a664869,
        type: 3}
      propertyPath: m_LocalPosition.y
      value: 0
      objectReference: {fileID: 0}
    - target: {fileID: 5361025131007925239, guid: 8952f28ccd452489989fbdf53a664869,
        type: 3}
      propertyPath: m_LocalPosition.z
      value: 0
      objectReference: {fileID: 0}
    - target: {fileID: 5361025131007925239, guid: 8952f28ccd452489989fbdf53a664869,
        type: 3}
      propertyPath: m_LocalRotation.w
      value: 0
      objectReference: {fileID: 0}
    - target: {fileID: 5361025131007925239, guid: 8952f28ccd452489989fbdf53a664869,
        type: 3}
      propertyPath: m_LocalRotation.x
      value: -0
      objectReference: {fileID: 0}
    - target: {fileID: 5361025131007925239, guid: 8952f28ccd452489989fbdf53a664869,
        type: 3}
      propertyPath: m_LocalRotation.y
      value: 1
      objectReference: {fileID: 0}
    - target: {fileID: 5361025131007925239, guid: 8952f28ccd452489989fbdf53a664869,
        type: 3}
      propertyPath: m_LocalRotation.z
      value: -0
      objectReference: {fileID: 0}
    - target: {fileID: 5361025131007925239, guid: 8952f28ccd452489989fbdf53a664869,
        type: 3}
      propertyPath: m_LocalEulerAnglesHint.x
      value: 0
      objectReference: {fileID: 0}
    - target: {fileID: 5361025131007925239, guid: 8952f28ccd452489989fbdf53a664869,
        type: 3}
      propertyPath: m_LocalEulerAnglesHint.y
      value: 180
      objectReference: {fileID: 0}
    - target: {fileID: 5361025131007925239, guid: 8952f28ccd452489989fbdf53a664869,
        type: 3}
      propertyPath: m_LocalEulerAnglesHint.z
      value: 0
      objectReference: {fileID: 0}
    m_RemovedComponents: []
  m_SourcePrefab: {fileID: 100100000, guid: 8952f28ccd452489989fbdf53a664869, type: 3}
--- !u!4 &4303145766608605147 stripped
Transform:
  m_CorrespondingSourceObject: {fileID: 5361025131007925239, guid: 8952f28ccd452489989fbdf53a664869,
    type: 3}
  m_PrefabInstance: {fileID: 8201608755172201516}
  m_PrefabAsset: {fileID: 0}
--- !u!1001 &8534856614032058004
PrefabInstance:
  m_ObjectHideFlags: 0
  serializedVersion: 2
  m_Modification:
    m_TransformParent: {fileID: 3411055748374159577}
    m_Modifications:
    - target: {fileID: 2193679876070391369, guid: 1fdf6dbd96541490f9e284cf458d850d,
        type: 3}
      propertyPath: m_RootOrder
      value: 1
      objectReference: {fileID: 0}
    - target: {fileID: 2193679876070391369, guid: 1fdf6dbd96541490f9e284cf458d850d,
        type: 3}
      propertyPath: m_LocalPosition.x
      value: 0
      objectReference: {fileID: 0}
    - target: {fileID: 2193679876070391369, guid: 1fdf6dbd96541490f9e284cf458d850d,
        type: 3}
      propertyPath: m_LocalPosition.y
      value: 0
      objectReference: {fileID: 0}
    - target: {fileID: 2193679876070391369, guid: 1fdf6dbd96541490f9e284cf458d850d,
        type: 3}
      propertyPath: m_LocalPosition.z
      value: 0
      objectReference: {fileID: 0}
    - target: {fileID: 2193679876070391369, guid: 1fdf6dbd96541490f9e284cf458d850d,
        type: 3}
      propertyPath: m_LocalRotation.w
      value: 1
      objectReference: {fileID: 0}
    - target: {fileID: 2193679876070391369, guid: 1fdf6dbd96541490f9e284cf458d850d,
        type: 3}
      propertyPath: m_LocalRotation.x
      value: -0
      objectReference: {fileID: 0}
    - target: {fileID: 2193679876070391369, guid: 1fdf6dbd96541490f9e284cf458d850d,
        type: 3}
      propertyPath: m_LocalRotation.y
      value: -0
      objectReference: {fileID: 0}
    - target: {fileID: 2193679876070391369, guid: 1fdf6dbd96541490f9e284cf458d850d,
        type: 3}
      propertyPath: m_LocalRotation.z
      value: -0
      objectReference: {fileID: 0}
    - target: {fileID: 2193679876070391369, guid: 1fdf6dbd96541490f9e284cf458d850d,
        type: 3}
      propertyPath: m_LocalEulerAnglesHint.x
      value: 0
      objectReference: {fileID: 0}
    - target: {fileID: 2193679876070391369, guid: 1fdf6dbd96541490f9e284cf458d850d,
        type: 3}
      propertyPath: m_LocalEulerAnglesHint.y
      value: 0
      objectReference: {fileID: 0}
    - target: {fileID: 2193679876070391369, guid: 1fdf6dbd96541490f9e284cf458d850d,
        type: 3}
      propertyPath: m_LocalEulerAnglesHint.z
      value: 0
      objectReference: {fileID: 0}
    - target: {fileID: 2288610194076382788, guid: 1fdf6dbd96541490f9e284cf458d850d,
        type: 3}
      propertyPath: m_Name
      value: 01_playerCube_Loc
      objectReference: {fileID: 0}
    - target: {fileID: 2989499887365922777, guid: 1fdf6dbd96541490f9e284cf458d850d,
        type: 3}
      propertyPath: m_Materials.Array.data[0]
      value: 
      objectReference: {fileID: 2100000, guid: 27d2faa86665e7b4d8ebce76c6f2374a, type: 2}
    m_RemovedComponents: []
  m_SourcePrefab: {fileID: 100100000, guid: 1fdf6dbd96541490f9e284cf458d850d, type: 3}
--- !u!4 &7494098526173862109 stripped
Transform:
  m_CorrespondingSourceObject: {fileID: 2193679876070391369, guid: 1fdf6dbd96541490f9e284cf458d850d,
    type: 3}
  m_PrefabInstance: {fileID: 8534856614032058004}
  m_PrefabAsset: {fileID: 0}
