%YAML 1.1
%TAG !u! tag:unity3d.com,2011:
--- !u!1 &3280723477337814955
GameObject:
  m_ObjectHideFlags: 0
  m_CorrespondingSourceObject: {fileID: 0}
  m_PrefabInstance: {fileID: 0}
  m_PrefabAsset: {fileID: 0}
  serializedVersion: 6
  m_Component:
  - component: {fileID: 1062438940501100996}
  m_Layer: 0
  m_Name: sport-player-0
  m_TagString: Untagged
  m_Icon: {fileID: 0}
  m_NavMeshLayer: 0
  m_StaticEditorFlags: 0
  m_IsActive: 1
--- !u!4 &1062438940501100996
Transform:
  m_ObjectHideFlags: 0
  m_CorrespondingSourceObject: {fileID: 0}
  m_PrefabInstance: {fileID: 0}
  m_PrefabAsset: {fileID: 0}
  m_GameObject: {fileID: 3280723477337814955}
  m_LocalRotation: {x: 0, y: 0, z: 0, w: 1}
  m_LocalPosition: {x: 0, y: 0, z: 0}
  m_LocalScale: {x: 1, y: 1, z: 1}
  m_Children:
  - {fileID: 4811635250744388211}
  - {fileID: 985749377219605758}
  m_Father: {fileID: 0}
  m_RootOrder: 0
  m_LocalEulerAnglesHint: {x: 0, y: 0, z: 0}
--- !u!1001 &1432023651450194615
PrefabInstance:
  m_ObjectHideFlags: 0
  serializedVersion: 2
  m_Modification:
    m_TransformParent: {fileID: 1062438940501100996}
    m_Modifications:
    - target: {fileID: 2193679876070391369, guid: 1fdf6dbd96541490f9e284cf458d850d,
        type: 3}
      propertyPath: m_RootOrder
      value: 1
      objectReference: {fileID: 0}
    - target: {fileID: 2193679876070391369, guid: 1fdf6dbd96541490f9e284cf458d850d,
        type: 3}
      propertyPath: m_LocalPosition.x
      value: 0
      objectReference: {fileID: 0}
    - target: {fileID: 2193679876070391369, guid: 1fdf6dbd96541490f9e284cf458d850d,
        type: 3}
      propertyPath: m_LocalPosition.y
      value: 0
      objectReference: {fileID: 0}
    - target: {fileID: 2193679876070391369, guid: 1fdf6dbd96541490f9e284cf458d850d,
        type: 3}
      propertyPath: m_LocalPosition.z
      value: 0
      objectReference: {fileID: 0}
    - target: {fileID: 2193679876070391369, guid: 1fdf6dbd96541490f9e284cf458d850d,
        type: 3}
      propertyPath: m_LocalRotation.w
      value: 1
      objectReference: {fileID: 0}
    - target: {fileID: 2193679876070391369, guid: 1fdf6dbd96541490f9e284cf458d850d,
        type: 3}
      propertyPath: m_LocalRotation.x
      value: -0
      objectReference: {fileID: 0}
    - target: {fileID: 2193679876070391369, guid: 1fdf6dbd96541490f9e284cf458d850d,
        type: 3}
      propertyPath: m_LocalRotation.y
      value: -0
      objectReference: {fileID: 0}
    - target: {fileID: 2193679876070391369, guid: 1fdf6dbd96541490f9e284cf458d850d,
        type: 3}
      propertyPath: m_LocalRotation.z
      value: -0
      objectReference: {fileID: 0}
    - target: {fileID: 2193679876070391369, guid: 1fdf6dbd96541490f9e284cf458d850d,
        type: 3}
      propertyPath: m_LocalEulerAnglesHint.x
      value: 0
      objectReference: {fileID: 0}
    - target: {fileID: 2193679876070391369, guid: 1fdf6dbd96541490f9e284cf458d850d,
        type: 3}
      propertyPath: m_LocalEulerAnglesHint.y
      value: 0
      objectReference: {fileID: 0}
    - target: {fileID: 2193679876070391369, guid: 1fdf6dbd96541490f9e284cf458d850d,
        type: 3}
      propertyPath: m_LocalEulerAnglesHint.z
      value: 0
      objectReference: {fileID: 0}
    - target: {fileID: 2288610194076382788, guid: 1fdf6dbd96541490f9e284cf458d850d,
        type: 3}
      propertyPath: m_Name
      value: 01_playerCube_Loc
      objectReference: {fileID: 0}
    m_RemovedComponents: []
  m_SourcePrefab: {fileID: 100100000, guid: 1fdf6dbd96541490f9e284cf458d850d, type: 3}
--- !u!4 &985749377219605758 stripped
Transform:
  m_CorrespondingSourceObject: {fileID: 2193679876070391369, guid: 1fdf6dbd96541490f9e284cf458d850d,
    type: 3}
  m_PrefabInstance: {fileID: 1432023651450194615}
  m_PrefabAsset: {fileID: 0}
--- !u!1001 &7482314002031851541
PrefabInstance:
  m_ObjectHideFlags: 0
  serializedVersion: 2
  m_Modification:
    m_TransformParent: {fileID: 1062438940501100996}
    m_Modifications:
    - target: {fileID: 2016474257123757568, guid: 4f228344968f7407999286ebce9c8150,
        type: 3}
      propertyPath: m_Name
      value: 03_H_basket_Loc 1
      objectReference: {fileID: 0}
    - target: {fileID: 2670872302926156390, guid: 4f228344968f7407999286ebce9c8150,
        type: 3}
      propertyPath: m_RootOrder
      value: 0
      objectReference: {fileID: 0}
    - target: {fileID: 2670872302926156390, guid: 4f228344968f7407999286ebce9c8150,
        type: 3}
      propertyPath: m_LocalPosition.x
      value: 0
      objectReference: {fileID: 0}
    - target: {fileID: 2670872302926156390, guid: 4f228344968f7407999286ebce9c8150,
        type: 3}
      propertyPath: m_LocalPosition.y
      value: 0
      objectReference: {fileID: 0}
    - target: {fileID: 2670872302926156390, guid: 4f228344968f7407999286ebce9c8150,
        type: 3}
      propertyPath: m_LocalPosition.z
      value: -1.021
      objectReference: {fileID: 0}
    - target: {fileID: 2670872302926156390, guid: 4f228344968f7407999286ebce9c8150,
        type: 3}
      propertyPath: m_LocalRotation.w
      value: 1
      objectReference: {fileID: 0}
    - target: {fileID: 2670872302926156390, guid: 4f228344968f7407999286ebce9c8150,
        type: 3}
      propertyPath: m_LocalRotation.x
      value: -0
      objectReference: {fileID: 0}
    - target: {fileID: 2670872302926156390, guid: 4f228344968f7407999286ebce9c8150,
        type: 3}
      propertyPath: m_LocalRotation.y
      value: -0
      objectReference: {fileID: 0}
    - target: {fileID: 2670872302926156390, guid: 4f228344968f7407999286ebce9c8150,
        type: 3}
      propertyPath: m_LocalRotation.z
      value: -0
      objectReference: {fileID: 0}
    - target: {fileID: 2670872302926156390, guid: 4f228344968f7407999286ebce9c8150,
        type: 3}
      propertyPath: m_LocalEulerAnglesHint.x
      value: 0
      objectReference: {fileID: 0}
    - target: {fileID: 2670872302926156390, guid: 4f228344968f7407999286ebce9c8150,
        type: 3}
      propertyPath: m_LocalEulerAnglesHint.y
      value: 0
      objectReference: {fileID: 0}
    - target: {fileID: 2670872302926156390, guid: 4f228344968f7407999286ebce9c8150,
        type: 3}
      propertyPath: m_LocalEulerAnglesHint.z
      value: 0
      objectReference: {fileID: 0}
    m_RemovedComponents: []
  m_SourcePrefab: {fileID: 100100000, guid: 4f228344968f7407999286ebce9c8150, type: 3}
--- !u!4 &4811635250744388211 stripped
Transform:
  m_CorrespondingSourceObject: {fileID: 2670872302926156390, guid: 4f228344968f7407999286ebce9c8150,
    type: 3}
  m_PrefabInstance: {fileID: 7482314002031851541}
  m_PrefabAsset: {fileID: 0}
