%YAML 1.1
%TAG !u! tag:unity3d.com,2011:
--- !u!1 &3847090858687203842
GameObject:
  m_ObjectHideFlags: 0
  m_CorrespondingSourceObject: {fileID: 0}
  m_PrefabInstance: {fileID: 0}
  m_PrefabAsset: {fileID: 0}
  serializedVersion: 6
  m_Component:
  - component: {fileID: 3301180060862530748}
  m_Layer: 3
  m_Name: time-bubble
  m_TagString: Untagged
  m_Icon: {fileID: 0}
  m_NavMeshLayer: 0
  m_StaticEditorFlags: 0
  m_IsActive: 1
--- !u!4 &3301180060862530748
Transform:
  m_ObjectHideFlags: 0
  m_CorrespondingSourceObject: {fileID: 0}
  m_PrefabInstance: {fileID: 0}
  m_PrefabAsset: {fileID: 0}
  m_GameObject: {fileID: 3847090858687203842}
  m_LocalRotation: {x: 0, y: 0, z: 0, w: 1}
  m_LocalPosition: {x: 0, y: 0, z: 0}
  m_LocalScale: {x: 1, y: 1, z: 1}
  m_Children:
  - {fileID: 2888979848013065266}
  - {fileID: 3901276226542212855}
  m_Father: {fileID: 0}
  m_RootOrder: 0
  m_LocalEulerAnglesHint: {x: 0, y: 0, z: 0}
--- !u!1001 &3308542898565151338
PrefabInstance:
  m_ObjectHideFlags: 0
  serializedVersion: 2
  m_Modification:
    m_TransformParent: {fileID: 3301180060862530748}
    m_Modifications:
    - target: {fileID: 2003627061056662685, guid: 4e48d2dee63be45cb949c91cfb1bfe22,
        type: 3}
      propertyPath: m_RootOrder
      value: 1
      objectReference: {fileID: 0}
    - target: {fileID: 2003627061056662685, guid: 4e48d2dee63be45cb949c91cfb1bfe22,
        type: 3}
      propertyPath: m_LocalScale.x
      value: 1.3841
      objectReference: {fileID: 0}
    - target: {fileID: 2003627061056662685, guid: 4e48d2dee63be45cb949c91cfb1bfe22,
        type: 3}
      propertyPath: m_LocalScale.y
      value: 1.3841
      objectReference: {fileID: 0}
    - target: {fileID: 2003627061056662685, guid: 4e48d2dee63be45cb949c91cfb1bfe22,
        type: 3}
      propertyPath: m_LocalScale.z
      value: 1.3841
      objectReference: {fileID: 0}
    - target: {fileID: 2003627061056662685, guid: 4e48d2dee63be45cb949c91cfb1bfe22,
        type: 3}
      propertyPath: m_LocalPosition.x
      value: 0
      objectReference: {fileID: 0}
    - target: {fileID: 2003627061056662685, guid: 4e48d2dee63be45cb949c91cfb1bfe22,
        type: 3}
      propertyPath: m_LocalPosition.y
      value: 0
      objectReference: {fileID: 0}
    - target: {fileID: 2003627061056662685, guid: 4e48d2dee63be45cb949c91cfb1bfe22,
        type: 3}
      propertyPath: m_LocalPosition.z
      value: 0.9
      objectReference: {fileID: 0}
    - target: {fileID: 2003627061056662685, guid: 4e48d2dee63be45cb949c91cfb1bfe22,
        type: 3}
      propertyPath: m_LocalRotation.w
      value: 1
      objectReference: {fileID: 0}
    - target: {fileID: 2003627061056662685, guid: 4e48d2dee63be45cb949c91cfb1bfe22,
        type: 3}
      propertyPath: m_LocalRotation.x
      value: -0
      objectReference: {fileID: 0}
    - target: {fileID: 2003627061056662685, guid: 4e48d2dee63be45cb949c91cfb1bfe22,
        type: 3}
      propertyPath: m_LocalRotation.y
      value: -0
      objectReference: {fileID: 0}
    - target: {fileID: 2003627061056662685, guid: 4e48d2dee63be45cb949c91cfb1bfe22,
        type: 3}
      propertyPath: m_LocalRotation.z
      value: -0
      objectReference: {fileID: 0}
    - target: {fileID: 2003627061056662685, guid: 4e48d2dee63be45cb949c91cfb1bfe22,
        type: 3}
      propertyPath: m_LocalEulerAnglesHint.x
      value: 0
      objectReference: {fileID: 0}
    - target: {fileID: 2003627061056662685, guid: 4e48d2dee63be45cb949c91cfb1bfe22,
        type: 3}
      propertyPath: m_LocalEulerAnglesHint.y
      value: 0
      objectReference: {fileID: 0}
    - target: {fileID: 2003627061056662685, guid: 4e48d2dee63be45cb949c91cfb1bfe22,
        type: 3}
      propertyPath: m_LocalEulerAnglesHint.z
      value: 0
      objectReference: {fileID: 0}
    - target: {fileID: 2184538937376071649, guid: 4e48d2dee63be45cb949c91cfb1bfe22,
        type: 3}
      propertyPath: m_Layer
      value: 3
      objectReference: {fileID: 0}
    - target: {fileID: 6793692563686487898, guid: 4e48d2dee63be45cb949c91cfb1bfe22,
        type: 3}
      propertyPath: m_Layer
      value: 3
      objectReference: {fileID: 0}
    - target: {fileID: 8397675531603108530, guid: 4e48d2dee63be45cb949c91cfb1bfe22,
        type: 3}
      propertyPath: m_Name
      value: 03_L_Clock_Loc 1
      objectReference: {fileID: 0}
    - target: {fileID: 8397675531603108530, guid: 4e48d2dee63be45cb949c91cfb1bfe22,
        type: 3}
      propertyPath: m_Layer
      value: 3
      objectReference: {fileID: 0}
    m_RemovedComponents: []
  m_SourcePrefab: {fileID: 100100000, guid: 4e48d2dee63be45cb949c91cfb1bfe22, type: 3}
--- !u!4 &3901276226542212855 stripped
Transform:
  m_CorrespondingSourceObject: {fileID: 2003627061056662685, guid: 4e48d2dee63be45cb949c91cfb1bfe22,
    type: 3}
  m_PrefabInstance: {fileID: 3308542898565151338}
  m_PrefabAsset: {fileID: 0}
--- !u!1001 &4929770408681853134
PrefabInstance:
  m_ObjectHideFlags: 0
  serializedVersion: 2
  m_Modification:
    m_TransformParent: {fileID: 3301180060862530748}
    m_Modifications:
    - target: {fileID: 1823950311200903621, guid: 4b49e58c044eb44a1b550c4cc4d0e203,
        type: 3}
      propertyPath: m_Name
      value: 03_Bobble_Ver5_Loc
      objectReference: {fileID: 0}
    - target: {fileID: 1823950311200903621, guid: 4b49e58c044eb44a1b550c4cc4d0e203,
        type: 3}
      propertyPath: m_Layer
      value: 3
      objectReference: {fileID: 0}
    - target: {fileID: 2302645833462308568, guid: 4b49e58c044eb44a1b550c4cc4d0e203,
        type: 3}
      propertyPath: m_Layer
      value: 3
      objectReference: {fileID: 0}
    - target: {fileID: 7311065205180139276, guid: 4b49e58c044eb44a1b550c4cc4d0e203,
        type: 3}
      propertyPath: m_Layer
      value: 3
      objectReference: {fileID: 0}
    - target: {fileID: 7817589026384411900, guid: 4b49e58c044eb44a1b550c4cc4d0e203,
        type: 3}
      propertyPath: m_RootOrder
      value: 0
      objectReference: {fileID: 0}
    - target: {fileID: 7817589026384411900, guid: 4b49e58c044eb44a1b550c4cc4d0e203,
        type: 3}
      propertyPath: m_LocalPosition.x
      value: 0
      objectReference: {fileID: 0}
    - target: {fileID: 7817589026384411900, guid: 4b49e58c044eb44a1b550c4cc4d0e203,
        type: 3}
      propertyPath: m_LocalPosition.y
      value: 0
      objectReference: {fileID: 0}
    - target: {fileID: 7817589026384411900, guid: 4b49e58c044eb44a1b550c4cc4d0e203,
        type: 3}
      propertyPath: m_LocalPosition.z
      value: 0
      objectReference: {fileID: 0}
    - target: {fileID: 7817589026384411900, guid: 4b49e58c044eb44a1b550c4cc4d0e203,
        type: 3}
      propertyPath: m_LocalRotation.w
      value: 1
      objectReference: {fileID: 0}
    - target: {fileID: 7817589026384411900, guid: 4b49e58c044eb44a1b550c4cc4d0e203,
        type: 3}
      propertyPath: m_LocalRotation.x
      value: -0
      objectReference: {fileID: 0}
    - target: {fileID: 7817589026384411900, guid: 4b49e58c044eb44a1b550c4cc4d0e203,
        type: 3}
      propertyPath: m_LocalRotation.y
      value: -0
      objectReference: {fileID: 0}
    - target: {fileID: 7817589026384411900, guid: 4b49e58c044eb44a1b550c4cc4d0e203,
        type: 3}
      propertyPath: m_LocalRotation.z
      value: -0
      objectReference: {fileID: 0}
    - target: {fileID: 7817589026384411900, guid: 4b49e58c044eb44a1b550c4cc4d0e203,
        type: 3}
      propertyPath: m_LocalEulerAnglesHint.x
      value: 0
      objectReference: {fileID: 0}
    - target: {fileID: 7817589026384411900, guid: 4b49e58c044eb44a1b550c4cc4d0e203,
        type: 3}
      propertyPath: m_LocalEulerAnglesHint.y
      value: 0
      objectReference: {fileID: 0}
    - target: {fileID: 7817589026384411900, guid: 4b49e58c044eb44a1b550c4cc4d0e203,
        type: 3}
      propertyPath: m_LocalEulerAnglesHint.z
      value: 0
      objectReference: {fileID: 0}
    m_RemovedComponents: []
  m_SourcePrefab: {fileID: 100100000, guid: 4b49e58c044eb44a1b550c4cc4d0e203, type: 3}
--- !u!4 &2888979848013065266 stripped
Transform:
  m_CorrespondingSourceObject: {fileID: 7817589026384411900, guid: 4b49e58c044eb44a1b550c4cc4d0e203,
    type: 3}
  m_PrefabInstance: {fileID: 4929770408681853134}
  m_PrefabAsset: {fileID: 0}
