%YAML 1.1
%TAG !u! tag:unity3d.com,2011:
--- !u!1045 &1
EditorBuildSettings:
  m_ObjectHideFlags: 0
  serializedVersion: 2
  m_Scenes:
  - enabled: 1
    path: Assets/Scenes/MainScene.unity
    guid: 57973e80d4b7a481fb3306f807fee068
  m_configObjects:
    Unity.XR.OpenVR.Settings: {fileID: 11400000, guid: cc2e815e3b3bd5d459c039ba584d5ff6,
      type: 2}
    com.unity.xr.management.loader_settings: {fileID: 11400000, guid: 0f9ac9a5422c1b946b0187cc86357dd0,
      type: 2}
